<?xml version="1.0" standalone="no"?>
<!DOCTYPE svg PUBLIC "-//W3C//DTD SVG 20010904//EN"
 "http://www.w3.org/TR/2001/REC-SVG-20010904/DTD/svg10.dtd">
<svg version="1.0" xmlns="http://www.w3.org/2000/svg"
 width="640.000000pt" height="640.000000pt" viewBox="0 0 640.000000 640.000000"
 preserveAspectRatio="xMidYMid meet">
<metadata>
Created by potrace 1.11, written by Peter Selinger 2001-2013
</metadata>
<g transform="translate(0.000000,640.000000) scale(0.100000,-0.100000)"
fill="#000000" stroke="none">
<path d="M1897 5444 c-1 -1 -30 -4 -63 -7 -76 -7 -119 -25 -162 -67 -60 -60
-72 -103 -71 -260 0 -112 0 -107 -3 -173 -2 -31 0 -57 3 -57 3 0 3 -20 -1 -45
-4 -25 -4 -48 0 -50 4 -3 4 -22 0 -44 -4 -22 -4 -45 0 -51 4 -7 4 -26 1 -44
-4 -17 -5 -44 -1 -60 3 -16 3 -63 0 -104 -3 -40 -2 -76 3 -79 4 -2 5 -8 3 -12
-4 -6 -7 -77 -6 -131 1 -8 0 -68 -1 -133 -1 -65 1 -120 3 -123 3 -2 2 -22 -2
-44 -4 -21 -4 -44 0 -50 4 -6 4 -26 1 -43 -4 -18 -4 -51 -1 -74 4 -24 4 -43 1
-43 -3 0 -6 -101 -6 -225 0 -124 4 -225 8 -225 5 0 5 -5 2 -10 -4 -6 -6 -51
-5 -100 1 -115 1 -106 -2 -173 -2 -31 0 -57 3 -57 3 0 3 -20 -1 -45 -4 -25 -4
-48 0 -50 4 -3 4 -22 0 -44 -4 -22 -4 -45 1 -52 4 -7 5 -17 3 -21 -5 -8 -5
-27 -3 -110 1 -39 0 -246 -2 -270 0 -7 0 -31 0 -53 1 -22 0 -66 -1 -98 -2 -31
-1 -57 2 -57 3 0 4 -28 2 -62 -1 -35 -2 -124 -1 -198 0 -74 0 -141 0 -147 -1
-7 -1 -19 -2 -25 0 -7 0 -31 0 -53 1 -22 0 -66 -1 -98 -2 -31 -1 -57 2 -57 3
0 4 -28 2 -62 -4 -96 -2 -251 4 -260 3 -4 1 -8 -5 -8 -7 0 -6 -11 1 -32 37
-116 98 -175 199 -193 45 -9 195 -8 208 0 6 3 11 3 11 -2 0 -18 363 -1 401 19
108 57 142 134 139 318 -1 102 -1 92 2 163 2 31 0 57 -3 57 -3 0 -3 20 1 45 4
25 4 48 0 50 -4 3 -4 22 -1 42 4 21 4 55 0 76 -3 21 -2 40 3 43 4 3 6 9 3 14
-6 9 -7 71 -3 153 2 31 0 57 -3 57 -3 0 -3 20 1 45 4 25 4 48 0 50 -4 3 -4 22
-1 42 4 21 4 55 0 76 -3 21 -2 40 3 43 4 3 6 9 3 14 -6 9 -7 71 -3 153 2 31 1
57 -2 57 -3 0 -4 28 -3 62 5 123 6 269 1 273 -2 3 -3 19 0 36 l5 31 63 -4 c35
-2 64 -1 64 2 0 3 25 5 55 5 30 0 55 -2 55 -5 0 -3 26 -4 57 -2 32 1 76 2 98
1 22 0 46 0 53 0 6 1 18 1 25 2 6 0 73 0 147 0 74 -1 163 0 198 1 34 2 62 1
62 -2 0 -3 26 -4 57 -2 32 1 76 2 98 1 22 0 47 0 55 0 8 1 26 1 40 0 14 0 32
0 40 0 45 3 93 0 101 -4 10 -7 11 -43 6 -183 -1 -28 1 -52 4 -52 3 0 3 -20 -1
-45 -4 -25 -4 -48 0 -50 4 -3 4 -22 0 -44 -4 -22 -4 -45 0 -51 4 -7 4 -27 0
-46 -4 -18 -6 -35 -3 -38 3 -2 4 -25 3 -50 0 -25 -1 -54 -1 -63 1 -37 1 -81
-2 -176 -1 -53 2 -97 6 -97 5 0 5 -4 2 -10 -5 -8 -6 -49 -4 -130 0 -15 0 -76
-1 -120 -5 -164 -4 -220 3 -220 5 0 5 -4 2 -10 -3 -5 -5 -33 -5 -62 1 -84 1
-89 0 -168 0 -84 5 -118 24 -164 28 -65 114 -128 177 -130 16 -1 29 -3 29 -6
0 -3 72 -5 160 -5 88 0 160 3 160 6 0 3 19 3 43 0 23 -4 61 -4 85 -1 23 4 42
3 42 -1 0 -14 105 23 140 49 90 68 100 103 99 350 0 71 0 90 2 115 0 6 0 30 0
52 -1 22 0 66 1 98 2 31 1 57 -2 57 -3 0 -4 28 -2 62 1 35 2 124 1 198 0 74 0
141 0 148 1 6 1 18 2 25 0 6 0 30 0 52 -1 22 0 66 1 98 2 31 1 57 -2 57 -3 0
-4 28 -2 62 1 35 2 124 1 198 0 74 0 141 0 148 1 6 1 18 2 25 0 6 0 30 0 52
-1 22 0 66 1 98 2 31 1 57 -2 57 -3 0 -4 28 -2 62 1 35 2 124 1 198 0 74 0
141 0 148 1 6 1 18 2 25 0 6 0 30 0 52 -1 22 0 66 1 98 2 31 1 57 -2 57 -3 0
-4 28 -2 62 1 35 2 124 1 198 0 74 0 141 0 148 1 6 1 18 2 25 0 6 0 30 0 52
-1 22 0 66 1 98 2 31 1 57 -2 57 -3 0 -4 28 -2 62 1 35 2 124 1 198 0 74 0
141 0 148 1 6 1 18 2 25 0 6 0 30 0 52 -1 22 0 66 1 98 2 31 1 57 -2 57 -3 0
-4 28 -2 62 4 103 2 271 -3 302 -19 97 -79 158 -192 194 -22 7 -33 8 -33 1 0
-6 -4 -8 -8 -5 -9 6 -164 8 -260 4 -34 -2 -62 -1 -62 2 0 3 -26 4 -57 3 -32
-2 -76 -3 -98 -4 -144 -2 -251 -115 -245 -258 0 -19 3 -38 6 -42 2 -4 0 -10
-4 -13 -5 -3 -6 -26 -2 -51 4 -25 4 -45 1 -45 -3 0 -5 -26 -4 -57 2 -32 3 -77
3 -100 -1 -24 -1 -51 -1 -60 1 -37 1 -81 -2 -176 -1 -53 2 -97 6 -97 5 0 5 -4
2 -10 -5 -8 -6 -49 -4 -130 0 -15 0 -76 -1 -120 -5 -164 -4 -220 3 -220 5 0 5
-4 2 -10 -3 -5 -5 -33 -5 -62 1 -78 1 -82 1 -155 0 -38 0 -79 -1 -93 -4 -97
-4 -140 1 -140 3 0 3 -17 0 -37 -6 -37 -8 -38 -54 -43 -26 -3 -47 -3 -47 0 0
3 -101 5 -225 5 -124 0 -225 -3 -225 -6 0 -3 -19 -3 -42 1 -24 3 -57 3 -75 -1
-17 -3 -37 -3 -43 1 -6 4 -29 4 -50 0 -22 -4 -41 -5 -44 -3 -4 5 -218 6 -241
2 -5 -1 -13 -1 -17 0 -7 1 -106 1 -128 0 -8 0 -32 1 -52 2 l-37 2 0 64 c0 34
-3 67 -6 73 -3 5 -3 10 2 10 4 0 7 48 6 107 -2 60 -3 127 -3 151 1 23 1 50 1
60 -1 36 -1 80 2 175 1 53 -2 97 -6 97 -5 0 -5 4 -2 10 5 8 6 49 4 130 0 15 0
76 1 120 4 156 4 220 -1 220 -3 0 -3 19 0 43 4 23 4 56 1 72 -3 17 -3 44 0 60
4 17 4 39 0 50 -4 11 -4 31 0 44 3 13 3 46 0 73 -4 27 -3 51 1 54 5 2 6 10 4
17 -2 7 -6 36 -9 65 -7 67 -26 109 -66 150 -57 57 -110 73 -237 72 -29 -1 -60
-1 -68 0 -34 1 -53 1 -110 1 -33 0 -86 1 -118 2 -32 1 -59 1 -60 1z"/>
<path d="M495 4789 c-72 -22 -137 -80 -158 -142 -8 -23 -15 -87 -16 -142 -1
-55 -3 -133 -4 -173 -1 -39 2 -72 6 -72 5 0 5 -5 2 -10 -7 -12 -10 -238 -3
-246 3 -2 2 -22 -2 -44 -4 -21 -4 -43 -1 -49 4 -5 4 -40 1 -76 -3 -37 -3 -68
1 -70 3 -3 3 -25 -1 -50 -4 -25 -3 -48 2 -51 4 -3 6 -10 2 -15 -3 -6 -6 -37
-5 -69 0 -57 0 -59 -27 -62 -15 -2 -44 0 -64 3 -20 3 -41 3 -47 -1 -6 -3 -34
-3 -61 0 -54 7 -97 -12 -112 -47 -3 -10 -7 -135 -7 -278 -1 -324 -4 -318 148
-315 30 1 58 3 63 6 4 3 8 1 8 -4 0 -4 22 -6 49 -2 l49 6 1 -105 c1 -136 0
-277 -2 -369 -1 -39 2 -72 6 -72 5 0 5 -5 2 -10 -7 -12 -10 -238 -3 -246 3 -2
2 -22 -2 -44 -4 -21 -4 -44 1 -51 4 -7 6 -16 3 -21 -6 -9 -6 -98 0 -156 11
-108 86 -186 201 -207 42 -7 193 -8 205 0 5 3 10 3 10 -2 0 -18 363 -1 401 19
81 43 127 112 135 205 9 92 10 313 2 313 -4 0 -5 6 -2 13 8 23 10 307 1 307
-5 0 -5 5 -2 10 7 12 10 238 3 246 -3 2 -2 22 2 44 4 21 4 44 0 50 -4 6 -4 26
-1 43 4 18 4 51 1 75 -4 23 -4 42 -1 42 7 0 5 219 -2 226 -2 3 -1 22 3 44 4
21 4 44 0 50 -4 6 -4 26 -1 43 4 18 4 51 1 75 -4 23 -4 42 -1 42 7 0 5 219 -2
226 -2 3 -1 22 3 44 4 21 4 44 0 50 -4 6 -4 26 -1 43 4 18 4 51 1 75 -4 23 -4
42 -1 42 7 0 5 219 -2 226 -2 3 -1 22 3 44 4 21 4 43 1 49 -4 5 -4 40 -1 76 3
37 2 69 -2 71 -5 3 -6 9 -4 13 14 21 6 188 -11 237 -16 47 -72 108 -117 128
-50 22 -96 36 -96 27 0 -4 -15 -6 -32 -4 -65 6 -288 8 -288 2 0 -3 -19 -3 -42
0 -24 4 -62 4 -85 1 -24 -4 -44 -3 -45 1 -2 4 -30 -1 -63 -12z"/>
<path d="M5513 4803 c-5 -1 -57 -4 -118 -6 -120 -5 -151 -15 -205 -70 -60 -60
-70 -108 -73 -341 -1 -69 1 -126 5 -126 4 0 5 -6 2 -13 -8 -22 -10 -307 -2
-307 4 0 5 -6 2 -13 -8 -22 -10 -307 -2 -307 4 0 5 -6 2 -13 -8 -22 -10 -307
-2 -307 4 0 5 -6 2 -13 -8 -22 -10 -307 -2 -307 4 0 5 -6 2 -13 -8 -22 -10
-307 -2 -307 4 0 5 -6 2 -13 -8 -22 -10 -307 -2 -307 4 0 5 -6 2 -13 -7 -19
-10 -307 -3 -307 3 0 3 -21 0 -47 -4 -27 -4 -69 -1 -95 3 -27 3 -48 -2 -48 -8
0 6 -46 28 -96 27 -62 97 -115 170 -129 41 -7 202 -8 214 0 5 3 10 3 10 -2 0
-4 33 -7 72 -6 40 1 118 3 173 4 102 2 164 17 200 47 34 28 72 85 85 126 13
39 16 208 5 226 -3 6 -3 10 2 10 4 0 8 101 8 225 0 124 -3 225 -7 225 -4 0 -5
6 -2 13 7 19 10 307 4 307 -3 0 -3 21 0 47 5 46 6 48 43 54 20 3 37 3 37 -1 0
-4 20 -4 45 0 25 4 48 4 50 0 2 -4 28 -3 57 1 88 14 88 11 88 320 0 243 -2
268 -18 287 -21 24 -55 32 -132 32 -30 0 -64 0 -75 0 -11 0 -36 0 -56 0 -34
-1 -36 1 -38 37 -1 21 -2 45 -2 53 1 22 1 121 0 128 -1 4 -1 9 0 12 6 20 4
310 -2 310 -5 0 -5 5 -2 10 7 12 10 238 3 246 -3 2 -2 22 2 44 4 21 4 44 -1
51 -4 7 -6 16 -3 21 6 9 6 98 0 156 -11 108 -86 186 -201 207 -42 7 -193 8
-205 0 -5 -3 -10 -3 -10 2 0 7 -124 12 -147 6z"/>
</g>
</svg>
